Challenge01_SmartCounter/smart_counter.vcd
$date
	Sun Jul 12 18:51:41 2026
$end
$version
	Icarus Verilog
$end
$timescale
	1ps
$end
$scope module smart_counter_tb $end
$var wire 8 ! count [7:0] $end
$var reg 1 " clk $end
$var reg 1 # enable $end
$var reg 1 $ load $end
$var reg 8 % load_data [7:0] $end
$var reg 1 & reset $end
$scope module uut $end
$var wire 1 " clk $end
$var wire 1 # enable $end
$var wire 1 $ load $end
$var wire 8 ' load_data [7:0] $end
$var wire 1 & reset $end
$var reg 8 ( count [7:0] $end
$upscope $end
$upscope $end
$enddefinitions $end
$comment Show the parameter values. $end
$dumpall
$end
#0
$dumpvars
bx (
b0 '
0&
b0 %
0$
0#
0"
bx !
$end
#2000
b0 !
b0 (
1&
#5000
1"
#10000
0"
#12000
0&
#15000
1"
#20000
0"
#22000
b11001 %
b11001 '
1$
#25000
b11001 !
b11001 (
1"
#30000
0"
#32000
1#
0$
#35000
b11010 !
b11010 (
1"
#40000
0"
#45000
b11011 !
b11011 (
1"
#50000
0"
#55000
b11100 !
b11100 (
1"
#60000
0"
#65000
b11101 !
b11101 (
1"
#70000
0"
#75000
b11110 !
b11110 (
1"
#80000
0"
#82000
0#
#85000
1"
#90000
0"
#95000
1"
#100000
0"
#102000
b1100100 %
b1100100 '
1$
#105000
b1100100 !
b1100100 (
1"
#110000
0"
#112000
1#
0$
#115000
b1100101 !
b1100101 (
1"
#120000
0"
#125000
b1100110 !
b1100110 (
1"
#130000
0"
#135000
b1100111 !
b1100111 (
1"
#140000
0"
#142000
0#
